{
    "aspects": [
      {
        "code": "$pv_1_a_0_code",
        "md": "$pv_1_a_0_text",
        "mde": "$pv_1_a_0_expression"
      },
      {
        "code": "$pv_1_a_1_code",
        "md": "$pv_1_a_1_text",
        "mde": "$pv_1_a_1_expression"
      },
      {
        "code": "$pv_1_a_2_code",
        "md": "$pv_1_a_2_text",
        "mde": "$pv_1_a_2_expression"
      }
    ],
   "defaults": {
      "color": "$pv_1_color"
      },
    "bucket": "$pv_1_bucket",
    "component": "wiagl-components/Vignette",
    "instructions": "$pv_1_preamble_instructions",
    "reminder": "$reminder_text",
    "id":"$pv_1_id",
    "order": 2,
    "skip": {
      "!==": [
        "$backend_pv_1_seen",
        true
      ]
    },
    "skip2": {
      "===": [
        "$vig_at_end",
        true
      ]
    },
    "workerId": "$workerId",
    "name": "snapshot"
  }