{
  "aspects": [
    {
      "code": 16,
      "color": "$color_16",
      "rating": "$rating_16",
      "text": "$text_16"
    },
    {
      "code": 15,
      "color": "$color_15",
      "rating": "$rating_15",
      "text": "$text_15"
    },
    {
      "code": 17,
      "color": "$color_17",
      "rating": "$rating_17",
      "text": "$text_17"
    }
  ],
  "bucket": "$bucket_15",
  "component": "wiagl-components/Tradeoff",
  "scale": "$scale",
  "should_decrease": "$should_decrease",
  "triple_code": 5,
  "skip": {
    "or": [
      {
        "===" : ["$rating_15_skip", "$skipRatingText"] 
      },{
        "===" : ["$rating_16_skip", "$skipRatingText"] 
      },{
        "===" : ["$rating_17_skip", "$skipRatingText"] 
      }
    ] 
  }
}