{
    "component": "packs-components/Form",
    "module_name":"Education",
    "n_unanswered_message": "$unanswered_message",
    "schema": {
      "properties": {
        "education": {
          "enum": [
            "Less than high school",
            "High school",
            "Some college",
            "Bachelor's degree",
            "Master's degree",
            "Doctoral degree"
          ],
          "title": "Highest level of education completed:",
          "type": "string"
        },
        "yearEducation": {
            "enum": [
               "2022",
               "2021",
               "2020",
               "2019",
               "2018",
               "2017",
               "2016",
               "2015",
               "2014",
               "2013",
               "2012",
               "2011",
               "2010",
               "2009",
               "2008",
               "2007",
               "2006",
               "2005",
               "2004",
               "2003",
               "2002",
               "2001",
               "2000",
               "1999",
               "1998",
               "1997",
               "1996",
               "1995",
               "1994",
               "1993",
               "1992",
               "1991",
               "1990",
               "1989",
               "1988",
               "1987",
               "1986",
               "1985",
               "1984",
               "1983",
               "1982",
               "1981",
               "1980",
               "1979",
               "1978",
               "1977",
               "1976",
               "1975",
               "1974",
               "1973",
               "1972",
               "1971",
               "1970",
               "1969",
               "1968",
               "1967",
               "1966",
               "1965",
               "1964",
               "1963",
               "1962",
               "1961",
               "1960",
               "1959",
               "1958",
               "1957",
               "1956",
               "1955",
               "1954",
               "1953",
               "1952",
               "1951",
               "1950",
               "1949",
               "1948",
               "1947",
               "1946",
               "1945",
               "1944",
               "1943",
               "1942",
               "1941",
               "1940",
               "1939",
               "1938",
               "1937",
               "1936",
               "1935",
               "1934",
               "1933",
               "1932",
               "1931",
               "1930",
               "1929",
               "1928",
               "1927",
               "1926",
               "1925",
               "1924",
               "1923",
               "1922",
               "1921",
               "1920",
               "1919",
               "1918",
               "1917",
               "1916",
               "1915",
               "1914",
               "1913",
               "1912",
               "1911",
               "1910",
               "1909",
               "1908",
               "1907",
               "1906",
               "1905",
               "1904",
               "1903",
               "1902",
               "1901",
               "1900"
            ],
            "title": "What year did you complete that education?:",
            "type": "string"
          },
        "major": {
            "enum": [
              "Not applicable",
              "Did not have a major",
              "Accounting and related services",
              "Agriculture and natural resources",
              "Anthropology",
              "Biological and biomedical sciences",
              "Business ",
              "Communication and communication technologies",
              "Computer and information sciences and support services",
              "Corrections and criminal justice",
              "Economics",
              "Education",
              "Engineering and engineering technologies",
              "English language and literature/letters",
              "Family and consumer sciences/human sciences",
              "Finance ",
              "Foreign languages, literatures, and linguistics",
              "Health professions and related programs",
              "History",
              "Liberal arts and sciences, general studies and humanities",
              "Marketing",
              "Mathematics/Statistics",
              "Multi/interdisciplinary studies",
              "Natural sciences, other",
              "Philosophy, Theology, and religious studies",
              "Physical education and sports studies",
              "Political Science",
              "Psychology",
              "Public administration and social service professions",
              "Social sciences, other",
              "Sociology",
              "Visual and performing arts",
              "Other"
            ],
            "title":
              "If you have attended any college, what was your major (field of study) for the highest level you attended? (If you are in college now, what is your major?)",
            "type": "string"
          }
        },

      "title": "More background questions",
      "type": "object"
  },
    "uiSchema": {
      "ui:order": [
        "education",
        "yearEducation",
        "major"
      ]
    }
}