{
    "component": "packs-components/Form",
    "module_name":"Weight_height_obj",
    "n_unanswered_message": "$unanswered_message",
    "schema": {
      "properties": {
        "heightFeet": {
          "enum": [
            "0 feet",
            "1 feet",
            "2 feet",
            "3 feet",
            "4 feet",
            "5 feet",
            "6 feet",
            "7 feet",
            "8 feet"
          ],
          "title": "Feet",
          "type": "string",
          "warning":"yes",
          "warning_text":"Please verify that your height is entered correctly ?",
          "subQuestion": true,
          "question": "What is your height?"
        },
        "heightInches": {
          "enum": [
            "0 inches",
            "1 inches",
            "2 inches",
            "3 inches",
            "4 inches",
            "5 inches",
            "6 inches",
            "7 inches",
            "8 inches",
            "9 inches",
            "10 inches",
            "11 inches"
          ],
          "title": "Inches",
          "type": "string",
          "subQuestion": true
          
        },
        "weight": {
          "enum": [
            "0 - 99 lb",
            "100 - 104 lb",
            "105 - 109 lb",
            "110 - 114 lb",
            "115 - 119 lb",
            "120 - 124 lb",
            "125 - 129 lb",
            "130 - 134 lb",
            "135 - 139 lb",
            "140 - 144 lb",
            "145 - 149 lb",
            "150 - 154 lb",
            "155 - 159 lb",
            "160 - 164 lb",
            "165 - 169 lb",
            "170 - 174 lb",
            "175 - 179 lb",
            "180 - 184 lb",
            "185 - 189 lb",
            "190 - 194 lb",
            "195 - 199 lb",
            "200 - 204 lb",
            "205 - 209 lb",
            "210 - 214 lb",
            "215 - 219 lb",
            "220 - 224 lb",
            "225 - 229 lb",
            "230 - 234 lb",
            "235 - 239 lb",
            "240 - 244 lb",
            "245 - 249 lb",
            "250 - 259 lb",
            "260 - 269 lb",
            "270 - 279 lb",
            "280 - 289 lb",
            "290 - 299 lb",
            "300 - 319 lb",
            "320 - 339 lb",
            "340 - 359 lb",
            "360 - 379 lb",
            "380 - 399 lb",
            "400 - 419 lb",
            "420 - 439 lb",
            "440+ lb"
          ],
          "title": "What is your weight?",
          "type": "string"
        }
      },
      "title": "More background questions",
      "type": "object"
      
    },
    "uiSchema": {
      "heightFeet": {
        "ui:widget": "select"
      },
      "heightInches": {
        "ui:widget": "select"
      },
      "weight": {
        "ui:widget": "select"
      },
      "ui:order": [ 
        "heightFeet",
        "heightInches",
        "weight"
      ]
    },
    "skip": {
      "===": [
        "$_after_height_weight",
        true
      ]
    }
  }