
{
    "component": "packs-components/Form",
    "module_name":"Stranger",
    "n_unanswered_message": "$unanswered_message",
    "schema": {
      "properties": {
        "stranger_waiting": {
          "enum": ["Yes", "No"],
          "title": "a. In a waiting room?",
          "type": "string",
          "question": "Would you be likely to talk to a stranger in the following situations?",
          "subQuestion": true
        },
        "stranger_train": {
          "enum": ["Yes", "No"],
          "title": "b. In a train?",
          "type": "string",
          "subQuestion": true
        },
        "stranger_plane": {
          "enum": ["Yes", "No"],
          "title": "c. In an airplane?",
          "type": "string",
          "subQuestion": true
        },
        "stranger_cab": {
          "enum": ["Yes", "No"],
          "title": "d. In a cab or ride-share?",
          "type": "string",
          "subQuestion": true
        }
      },
      "title": "More background questions",
      "type": "object"
    },
    "uiSchema": {
      "ui:order": [
        "stranger_waiting",
        "stranger_train",
        "stranger_plane",
        "stranger_cab"
      ]
    }
  }