{
    "component": "packs-components/Form",
    "module_name":"Ressource2",
    "n_unanswered_message": "$unanswered_message",
    "schema": {
      "properties": {
        "bill_difficulty": {
          "enum": [
            "Never",
            "Almost never",
            "Occasionally",
            "Most of the time"
          ],
          "title":"During the last 12 months, would you say you had difficulties paying the bills at the end of the month?",
          "type": "string"
        },
        "cost_difficulty_fruit": {
          "enum": [
            "Never",
            "Almost never",
            "Occasionally",
            "Most of the time"
          ],
          "title": "1: Gone without fresh fruits or vegetables?",
          "type": "string",
          "question": "During the last 12 months, to what extent have you done any of the following things to keep costs down?",
          "subQuestion": true
        },
        "cost_difficulty_doctor": {
          "enum": [
            "Never",
            "Almost never",
            "Occasionally",
            "Most of the time"
          ],
          "title": "2: Postponed or put off visits to the doctor?",
          "type": "string",
          "subQuestion": true
        },
        "cost_difficulty_shop": {
          "enum": [
            "Never",
            "Almost never",
            "Occasionally",
            "Most of the time"
          ],
          "title": "3: Done without, or cut back on, trips to the shops or other local places?",
          "type": "string",
          "subQuestion": true
        },
        "cost_difficulty_hobby": {
          "enum": [
            "Never",
            "Almost never",
            "Occasionally",
            "Most of the time"
          ],
          "title": "4: Spent less on hobbies or other special interests than you would like?",
          "type": "string",
          "subQuestion": true
        },
        "cost_difficulty_cold": {
          "enum": [
            "Never",
            "Almost never",
            "Occasionally",
            "Most of the time"
          ],
          "title": "5: Put up with feeling cold?",
          "type": "string",
          "subQuestion": true
        },
        "cost_difficulty_repair": {
          "enum": [
            "Never",
            "Almost never",
            "Occasionally",
            "Most of the time"
          ],
          "title": "6: Delayed replacing, or repairing, broken or damaged appliances?",
          "type": "string",
          "subQuestion": true
        }
      },
      "title": "Additional background questions",
      "type": "object"
    },
    "uiSchema": {
      "bill_difficulty": {
        "ui:widget": "select"
      },
      "cost_difficulty_fruit": {
        "ui:widget": "select"
      },
      "cost_difficulty_doctor": {
        "ui:widget": "select"
      },
      "cost_difficulty_shop": {
        "ui:widget": "select"
      },
      "cost_difficulty_hobby": {
        "ui:widget": "select"
      },
      "cost_difficulty_cold": {
        "ui:widget": "select"
      },
      "cost_difficulty_repair": {
        "ui:widget": "select"
      },
      "ui:order": [
        "bill_difficulty",
        "cost_difficulty_fruit",
        "cost_difficulty_doctor",
        "cost_difficulty_shop",
        "cost_difficulty_hobby",
        "cost_difficulty_cold",
        "cost_difficulty_repair"
      ]
    }
  }
  